…
tracts <- bind_rows(nea_tracts, den_tracts)
```

This is what a table with all ancestry tracts looks like. As we would
expect, we see a column indicating a name of each individual, the left
and right coordinates of each tract in each individual, as well as the
population name of the source of each ancestry tract:

``` r

tracts
#> # A tibble: 17,002 × 10
#>    name  haplotype  time pop   source_pop     left    right length source_pop_id
#>    <chr>     <int> <dbl> <chr> <fct>         <dbl>    <dbl>  <dbl>         <dbl>
#>  1 EUR_1         1     0 EUR   NEA          781887   852668  70781             3
#>  2 EUR_1         1     0 EUR   NEA         1451389  1463837  12448             3
#>  3 EUR_1         1     0 EUR   NEA         1596995  1601441   4446             3
#>  4 EUR_1         1     0 EUR   NEA         1629857  1689656  59799             3
#>  5 EUR_1         1     0 EUR   NEA         3203711  3339565 135854             3
#>  6 EUR_1         1     0 EUR   NEA         3850629  3947923  97294             3
#>  7 EUR_1         1     0 EUR   NEA         6190700  6205627  14927             3
#>  8 EUR_1         1     0 EUR   NEA        10394211 10426667  32456             3
#>  9 EUR_1         1     0 EUR   NEA        13044685 13180258 135573             3
#> 10 EUR_1         1     0 EUR   NEA        14858956 14912068  53112             3
#> # ℹ 16,992 more rows
#> # ℹ 1 more variable: node_id <dbl>
```
…
