…
We can extract information about individual’s names, nodes, population
assignments, etc. just as with any *slendr* tree sequence with the
function [`ts_nodes()`](https://bodkan.net/slendr/reference/ts_nodes.md). As
with standard *slendr* models, this function loads the “raw” node and
individual [tree-sequences
tables](https://tskit.dev/tutorials/tables_and_editing.html), performs a
couple of join operations, and presents the whole thing in a nice
unified form for interactive data analysis (which can also include
spatial information—see below):

``` r

data <- ts_nodes(ts) %>% dplyr::filter(sampled)
data
#> # A tibble: 26,020 × 11
#>    pop   node_id  time time_tskit sampled remembered retained alive pedigree_id
#>    <chr>   <int> <dbl>      <dbl> <lgl>   <lgl>      <lgl>    <lgl>       <dbl>
#>  1 p1          0     0          0 TRUE    FALSE      FALSE    TRUE     20073000
#>  2 p1          1     0          0 TRUE    FALSE      FALSE    TRUE     20073000
#>  3 p1          2     0          0 TRUE    FALSE      FALSE    TRUE     20073001
#>  4 p1          3     0          0 TRUE    FALSE      FALSE    TRUE     20073001
#>  5 p1          4     0          0 TRUE    FALSE      FALSE    TRUE     20073002
#>  6 p1          5     0          0 TRUE    FALSE      FALSE    TRUE     20073002
#>  7 p1          6     0          0 TRUE    FALSE      FALSE    TRUE     20073003
#>  8 p1          7     0          0 TRUE    FALSE      FALSE    TRUE     20073003
#>  9 p1          8     0          0 TRUE    FALSE      FALSE    TRUE     20073004
#> 10 p1          9     0          0 TRUE    FALSE      FALSE    TRUE     20073004
#> # ℹ 26,010 more rows
#> # ℹ 2 more variables: ind_id <dbl>, pop_id <int>
```
…
``` python
import msprime
ts = msprime.sim_ancestry(100)
ts.dump(<trees file>)
```

And then we can proceed with loading the msprime tree sequence into R
and analyze it with the slendr functionality:

``` r

ts <- ts_read(msprime_trees_file)

ts_nodes(ts)
#> # A tibble: 199 × 7
#>    pop   ind_id node_id  time time_tskit sampled pop_id
#>    <chr>  <dbl>   <int> <dbl>      <dbl> <lgl>    <int>
#>  1 0         NA       0     0          0 TRUE         0
#>  2 0         NA       1     0          0 TRUE         0
#>  3 0         NA       2     0          0 TRUE         0
#>  4 0         NA       3     0          0 TRUE         0
#>  5 0         NA       4     0          0 TRUE         0
#>  6 0         NA       5     0          0 TRUE         0
#>  7 0         NA       6     0          0 TRUE         0
#>  8 0         NA       7     0          0 TRUE         0
#>  9 0         NA       8     0          0 TRUE         0
#> 10 0         NA       9     0          0 TRUE         0
#> # ℹ 189 more rows
```
…
Finally, we can access the spatio-temporal data embedded in the output
tree sequence in the standard *slendr* way (note the spatial
[*sf*](https://r-spatial.github.io/sf/) column `location` with the
`POINT` data type):

``` r

data <- ts_nodes(ts)
data
#> Simple feature collection with 1955 features and 11 fields
#> Geometry type: POINT
#> Dimension:     XY
#> Bounding box:  xmin: 0.07649281 ymin: 0.0006142841 xmax: 0.9984433 ymax: 0.9892587
#> CRS:           NA
#> # A tibble: 1,955 × 12
#>    pop   node_id  time time_tskit               location sampled remembered
#>    <chr>   <int> <dbl>      <dbl>                <POINT> <lgl>   <lgl>     
#>  1 p1          0     0          0   (0.904485 0.0777489) TRUE    FALSE     
#>  2 p1          1     0          0   (0.904485 0.0777489) TRUE    FALSE     
#>  3 p1          2     0          0   (0.668828 0.5246381) TRUE    FALSE     
#>  4 p1          3     0          0   (0.668828 0.5246381) TRUE    FALSE     
#>  5 p1          4     0          0  (0.7707701 0.1518462) TRUE    FALSE     
#>  6 p1          5     0          0  (0.7707701 0.1518462) TRUE    FALSE     
#>  7 p1          6     0          0  (0.7617792 0.2616453) TRUE    FALSE     
#>  8 p1          7     0          0  (0.7617792 0.2616453) TRUE    FALSE     
#>  9 p1          8     0          0 (0.9807475 0.04223008) TRUE    FALSE     
#> 10 p1          9     0          0 (0.9807475 0.04223008) TRUE    FALSE     
#> # ℹ 1,945 more rows
#> # ℹ 5 more variables: retained <lgl>, alive <lgl>, pedigree_id <dbl>,
#> #   ind_id <dbl>, pop_id <int>
```
…
