Working with spatially annotated tree-sequences • slendr
…
In the next step, we will schedule the sampling of one individual from each population every one thousand years, starting from 40 thousand years ago to the present (again, a feature already discussed in the tree-sequence overview):

# one ancient individual every 1 thousand years
ancient <- sampling(times = seq(40000, 1, by = -500),
                    list(ooa, 1), list(ehg, 1), list(eur, 1),
                    list(ana, 1), list(yam, 1))

# 40 present-day Africans, 100 present-day Europeans
present <- sampling(times = 0, list(afr, 50), list(eur, 100))

# combine sampling schedules (i.e. data frames) into one
samples <- rbind(ancient, present)
samples

#> # A tibble: 183 x 3
#>     time pop       n
#>    <int> <chr> <int>
#>  1 40000 OOA       1
#>  2 39500 OOA       1
#>  3 39000 OOA       1
#>  4 38500 OOA       1
#>  5 38000 OOA       1
#>  6 37500 OOA       1
#>  7 37000 OOA       1
#>  8 36500 OOA       1
#>  9 36000 OOA       1
#> 10 35500 OOA       1
#> # … with 173 more rows
…
Extracting spatial tree-sequence data

As we showed in the tutorial to tree-sequence data in slendr, a useful function for data exploration is ts_individuals() which, for a given tree-sequence object loaded and annotated by slendr, extracts all information about individuals recorded in the data:

ts_individuals(ts)

#> # A tibble: 331 x 16
#>    name     id pedigree_id chr1_id chr2_id raster_x raster_y remembered retained
#>    <chr> <int>       <int>   <int>   <int>    <dbl>    <dbl> <lgl>      <lgl>   
#>  1 OOA1    150     1441668       0     331     644.     273. TRUE       FALSE   
#>  2 OOA2    151     1502890       1     332     648.     278. TRUE       FALSE   
#>  3 OOA3    152     1560347       2     333     688.     335. TRUE       FALSE   
#>  4 OOA4    153     1622207       3     334     644.     326. TRUE       FALSE   
#>  5 OOA5    154     1683493       4     335     685.     313. TRUE       FALSE   
#>  6 OOA6    155     1741149       5     336     667.     343. TRUE       FALSE   
#>  7 OOA7    156     1802798       6     337     664.     302. TRUE       FALSE   
#>  8 OOA8    157     1863882       7     338     647.     319. TRUE       FALSE   
#>  9 OOA9    158     1921961       8     339     673.     317. TRUE       FALSE   
#> 10 OOA10   159     1983165       9     340     672.     319. TRUE       FALSE   
#> # … with 321 more rows, and 7 more variables: alive <lgl>, pop_id <int>,
#> #   flag <int>, pop <chr>, time <int>, chr1 <chr>, chr2 <chr>
…
#>   EUR - 149 individuals
#>   OOA - 31 individuals
#>   YAM - 9 individuals
#> 
#>   oldest sample:  40000 
#>   youngest sample:  0 
#> 
#> map: internal coordinate reference system: EPSG 3035 
#> spatial limits (in degrees longitude and latitude):
#>   - vertical -15 ... 60
#>   - horizontal 20 ... 65
#> 
#> contents of the sf object:
#> 
#> # A tibble: 331 x 17
#>    name   time          location    id chr1_id chr2_id pedigree_id
#>    <chr> <int>       <POINT [m]> <int>   <int>   <int>       <int>
#>  1 OOA1  40000 (8078129 2848011)   150       0     331     1441668
#>  2 OOA2  39500 (8115548 2891034)   151       1     332     1502890
#>  3 OOA3  39000 (8516962 3465288)   152       2     333     1560347
#>  4 OOA4  38500 (8082480 3379350)   153       3     334     1622207
#>  5 OOA5  38000 (8487390 3240527)   154       4     335     1683493
#>  6 OOA6  37500 (8312391 3543309)   155       5     336     1741149
#>  7 OOA7  37000 (8284496 3137243)   156       6     337     1802798
#>  8 OOA8  36500 (8107185 3299701)   157       7     338     1863882
#>  9 OOA9  36000 (8373710 3284231)   158       8     339     1921961
#> 10 OOA10 35500 (8355882 3302481)   159       9     340     1983165
#> # … with 321 more rows, and 10 more variables: remembered <lgl>,
#> #   retained <lgl>, alive <lgl>, raster_x <dbl>, raster_y <dbl>, pop_id <int>,
#> #   flag <int>, pop <chr>, chr1 <chr>, chr2 <chr>
…
#>   EUR - 149 individuals
#>   OOA - 31 individuals
#>   YAM - 9 individuals
#> 
#>   oldest sample:  40000 
#>   youngest sample:  0 
#> 
#> map: internal coordinate reference system: EPSG 3035 
#> spatial limits (in degrees longitude and latitude):
#>   - vertical -15 ... 60
#>   - horizontal 20 ... 65
#> 
#> contents of the sf object:
#> 
#> # A tibble: 331 x 17
#>    name   time            location    id chr1_id chr2_id pedigree_id
#>    <chr> <int>         <POINT [°]> <int>   <int>   <int>       <int>
#>  1 OOA1  40000 (55.57624 38.09138)   150       0     331     1441668
#>  2 OOA2  39500 (56.20279 38.20475)   151       1     332     1502890
#>  3 OOA3  39000  (63.89272 39.8387)   152       2     333     1560347
#>  4 OOA4  38500 (59.02694 41.81637)   153       3     334     1622207
#>  5 OOA5  38000  (62.04396 38.5424)   154       4     335     1683493
#>  6 OOA6  37500 (62.48786 41.58139)   155       5     336     1741149
#>  7 OOA7  37000 (59.40316 39.01447)   156       6     337     1802798
#>  8 OOA8  36500 (58.72855 41.13011)   157       7     338     1863882
#>  9 OOA9  36000    (61.25 39.50242)   158       8     339     1921961
#> 10 OOA10 35500 (61.20213 39.72891)   159       9     340     1983165
#> # … with 321 more rows, and 10 more variables: remembered <lgl>,
#> #   retained <lgl>, alive <lgl>, raster_x <dbl>, raster_y <dbl>, pop_id <int>,
#> #   flag <int>, pop <chr>, chr1 <chr>, chr2 <chr>
…
#>   EUR - 149 individuals
#>   OOA - 31 individuals
#>   YAM - 9 individuals
#> 
#>   oldest sample:  40000 
#>   youngest sample:  0 
#> 
#> map: internal coordinate reference system: EPSG 3035 
#> spatial limits (in degrees longitude and latitude):
#>   - vertical -15 ... 60
#>   - horizontal 20 ... 65
#> 
#> contents of the sf object:
#> 
#> # A tibble: 331 x 18
#>    name   time          location    id chr1_id chr2_id pedigree_id
#>    <chr> <int>       <POINT [m]> <int>   <int>   <int>       <int>
#>  1 OOA1  40000 (8078129 2848011)   150       0     331     1441668
#>  2 OOA2  39500 (8115548 2891034)   151       1     332     1502890
#>  3 OOA3  39000 (8516962 3465288)   152       2     333     1560347
#>  4 OOA4  38500 (8082480 3379350)   153       3     334     1622207
#>  5 OOA5  38000 (8487390 3240527)   154       4     335     1683493
#>  6 OOA6  37500 (8312391 3543309)   155       5     336     1741149
#>  7 OOA7  37000 (8284496 3137243)   156       6     337     1802798
#>  8 OOA8  36500 (8107185 3299701)   157       7     338     1863882
#>  9 OOA9  36000 (8373710 3284231)   158       8     339     1921961
#> 10 OOA10 35500 (8355882 3302481)   159       9     340     1983165
#> # … with 321 more rows, and 11 more variables: remembered <lgl>,
#> #   retained <lgl>, alive <lgl>, raster_x <dbl>, raster_y <dbl>, pop_id <int>,
#> #   flag <int>, pop <chr>, chr1 <chr>, chr2 <chr>, epoch <fct>
…
