Processing of tree-sequence data • slendr
…
As you can see, the sampling() function returns a plain old data frame with a very simple structure (columns time, population name, number of individuals). This means that you can define sampling events using whatever input data you might already have available (such as radiocarbon-dated historical samples).

For instance, a paper by Petr et al. examined the impact of ancient geneflow between Eurasian populations (known to carry Neanderthal ancestry) and African populations (assumed to carry no Neanderthal ancestry) on the inference of Neanderthal ancestry proportions in Eurasians. Specifically, because African genomes are routinely used to estimate Neanderthal ancestry in non-Africans they were interested in knowing how do traces amounts of Neanderthal ancestry present in Africans today resulting from past geneflow between Eurasians and Africans affect the statistical inference.

The table of radiocarbon ages of early modern human (EMH) ancient DNA data points is available online. The only thing we have to do is reformat it so that it is in the same format as the data frames produced by the sampling() function:

emh_inds <- readr::read_delim(
  "https://raw.githubusercontent.com/bodkan/nea-over-time/master/data/emh_ages.txt",
  delim = " ", col_names = c("name", "time")
)

emh_inds
#> # A tibble: 51 x 2
#>    name         time
#>    <chr>       <dbl>
#>  1 UstIshim    45020
#>  2 Oase1       39610
#>  3 Kostenki14  37470
#>  4 GoyetQ116-1 34795
#>  5 Muierii2    33300
#>  6 Paglicci133 32895
#>  7 Cioclovina1 32435
#>  8 Kostenki12  32415
#>  9 KremsWA3    30970
#> 10 Vestonice13 30870
#> # … with 41 more rows
…
