…
Typing the object into the R console presents a user-friendly summary of
the spatio-temporal data extracted from the tree sequence:

``` r

data
```

    #> Simple feature collection with 948 features and 12 fields (with 2 geometries empty)
    #> Geometry type: POINT
    #> Dimension:     XY
    #> Bounding box:  xmin: 2721964 ymin: 428651.3 xmax: 8613304 ymax: 4959957
    #> Projected CRS: ETRS89-extended / LAEA Europe
    #> # A tibble: 948 × 13
    #>    name  pop   node_id  time time_tskit           location sampled
    #>    <chr> <fct>   <int> <dbl>      <dbl>        <POINT [m]> <lgl>  
    #>  1 AFR_1 AFR       362     0          0 (3665253 847038.2) TRUE   
    #>  2 AFR_1 AFR       363     0          0 (3665253 847038.2) TRUE   
    #>  3 AFR_2 AFR       364     0          0 (4877281 428651.3) TRUE   
    #>  4 AFR_2 AFR       365     0          0 (4877281 428651.3) TRUE   
    #>  5 AFR_3 AFR       366     0          0 (3491753 724345.8) TRUE   
    #>  6 AFR_3 AFR       367     0          0 (3491753 724345.8) TRUE   
    #>  7 AFR_4 AFR       368     0          0  (3754934 1216666) TRUE   
    #>  8 AFR_4 AFR       369     0          0  (3754934 1216666) TRUE   
    #>  9 AFR_5 AFR       370     0          0  (3806357 1063276) TRUE   
    #> 10 AFR_5 AFR       371     0          0  (3806357 1063276) TRUE   
    #> # ℹ 938 more rows
    #> # ℹ 6 more variables: remembered <lgl>, retained <lgl>, alive <lgl>,
    #> #   pedigree_id <dbl>, ind_id <dbl>, pop_id <int>
…
``` r

lineages
```

    #> Simple feature collection with 134 features and 12 fields
    #> Active geometry column: connection
    #> Geometry type: LINESTRING
    #> Dimension:     XY
    #> Bounding box:  xmin: 2721964 ymin: 546923.8 xmax: 8506059 ymax: 4652439
    #> Projected CRS: ETRS89-extended / LAEA Europe
    #> # A tibble: 134 × 15
    #>    name  pop   node_id level child_id parent_id child_time parent_time child_pop
    #>  * <chr> <fct>   <int> <fct>    <int>     <int>      <dbl>       <dbl> <fct>    
    #>  1 EUR_… EUR       406 1          406       446          0        1300 EUR      
    #>  2 EUR_… EUR       406 2          446       469       1300        3550 EUR      
    #>  3 EUR_… EUR       406 3          469       488       3550        5890 EUR      
    #>  4 EUR_… EUR       406 4          488       494       5890        6970 EUR      
    #>  5 EUR_… EUR       406 4          488       570       5890       13690 EUR      
    #>  6 EUR_… EUR       406 5          494       570       6970       13690 EUR      
    #>  7 EUR_… EUR       406 5          570       675      13690       21370 EUR      
    #>  8 EUR_… EUR       406 6          675       750      21370       25960 EUR      
    #>  9 EUR_… EUR       406 7          750       756      25960       26230 EHG      
    #> 10 EUR_… EUR       406 8          756       792      26230       28000 EHG      
    #> # ℹ 124 more rows
    #> # ℹ 6 more variables: parent_pop <fct>, child_location <POINT [m]>,
    #> #   parent_location <POINT [m]>, connection <LINESTRING [m]>, left_pos <dbl>,
    #> #   right_pos <dbl>
…
Let’s look at the spatial ancestry of another sample. For instance, we
know that the simulated history of the Anatolian population in our model
is much simpler. According to the demographic graph above, Anatolians
split from the ancestral population of Eurasians in Anatolia and then
expanded in a wave to Europe. We have sampled the following individuals:

``` r

ts_samples(ts) %>% filter(pop == "ANA")
```

    #> # A tibble: 48 × 3
    #>    name    time pop  
    #>    <chr>  <int> <chr>
    #>  1 ANA_1  27500 ANA  
    #>  2 ANA_2  27000 ANA  
    #>  3 ANA_3  26500 ANA  
    #>  4 ANA_4  26000 ANA  
    #>  5 ANA_5  25500 ANA  
    #>  6 ANA_6  25000 ANA  
    #>  7 ANA_7  24500 ANA  
    #>  8 ANA_8  24000 ANA  
    #>  9 ANA_9  23500 ANA  
    #> 10 ANA_10 23000 ANA  
    #> # ℹ 38 more rows
…
lineages <-
  ts_samples(ts) %>%
  pull(name) %>%
  ts_ancestors(ts, x = .)

select(lineages, connection, child_time, parent_time)
```

    #> Simple feature collection with 23928 features and 2 fields
    #> Geometry type: LINESTRING
    #> Dimension:     XY
    #> Bounding box:  xmin: 2721964 ymin: 428651.3 xmax: 8613304 ymax: 4959957
    #> Projected CRS: ETRS89-extended / LAEA Europe
    #> # A tibble: 23,928 × 3
    #>                             connection child_time parent_time
    #>                       <LINESTRING [m]>      <dbl>       <dbl>
    #>  1  (8103641 3334456, 7956278 3180199)      40000       40330
    #>  2  (7956278 3180199, 8036310 1911729)      40330       43900
    #>  3  (7956278 3180199, 8031610 2059804)      40330       44020
    #>  4  (8036310 1911729, 8031610 2059804)      43900       44020
    #>  5  (8031610 2059804, 7687313 1689532)      44020       45970
    #>  6  (7687313 1689532, 7175192 1476174)      45970       47740
    #>  7  (7687313 1689532, 6867500 1338048)      45970       48730
    #>  8  (7175192 1476174, 6867500 1338048)      47740       48730
    #>  9  (6867500 1338048, 6754277 1091742)      48730       49810
    #> 10 (6754277 1091742, 3290558 497125.8)      49810       60400
    #> # ℹ 23,918 more rows
…
