Analyzing non-slendr tree sequences • slendr
…
#> total:
#>   - 13010 'sampled' individuals
#>   - 0 'remembered' individuals
#>   - 0 'retained' individuals
#>   - 13010 'alive' individuals
#> --------------------- 
#> oldest sampled individual: 0 time units 'before present' 
#> youngest sampled individual: 0 time units 'before present' 
#> 
#> oldest node: 0 time units 'before present' 
#> youngest node: 0 time units 'before present' 
#> --------------------- 
#> overview of the underlying table object:
#> 
#> # A tibble: 26,020 × 11
#>    pop   node_id  time time_tskit sampled remembe…¹ retai…² alive pedig…³ ind_id
#>    <chr>   <int> <dbl>  <dbl[1d]> <lgl>   <lgl>     <lgl>   <lgl>   <dbl>  <dbl>
#>  1 p1          0     0          0 TRUE    FALSE     FALSE   TRUE   2.01e7      0
#>  2 p1          1     0          0 TRUE    FALSE     FALSE   TRUE   2.01e7      0
#>  3 p1          2     0          0 TRUE    FALSE     FALSE   TRUE   2.01e7      1
#>  4 p1          3     0          0 TRUE    FALSE     FALSE   TRUE   2.01e7      1
#>  5 p1          4     0          0 TRUE    FALSE     FALSE   TRUE   2.01e7      2
#>  6 p1          5     0          0 TRUE    FALSE     FALSE   TRUE   2.01e7      2
#>  7 p1          6     0          0 TRUE    FALSE     FALSE   TRUE   2.01e7      3
#>  8 p1          7     0          0 TRUE    FALSE     FALSE   TRUE   2.01e7      3
#>  9 p1          8     0          0 TRUE    FALSE     FALSE   TRUE   2.01e7      4
#> 10 p1          9     0          0 TRUE    FALSE     FALSE   TRUE   2.01e7      4
#> # … with 26,010 more rows, 1 more variable: pop_id <int>, and abbreviated
#> #   variable names ¹​remembered, ²​retained, ³​pedigree_id
…
And then we can proceed with loading the msprime tree sequence into R
and analyze it with the slendr functionality:

ts <- ts_load(msprime_trees_file)

ts_nodes(ts)
#> slendr 'nodes' object 
#> --------------------- 
#> times are expressed in a backward time direction
#> --------------------- 
#> overview of the underlying table object:
#> 
#> # A tibble: 199 × 7
#>    pop   ind_id node_id      time time_tskit sampled pop_id
#>    <chr>  <dbl>   <int> <dbl[1d]>  <dbl[1d]> <lgl>    <int>
#>  1 0         NA       0         0          0 TRUE         0
#>  2 0         NA       1         0          0 TRUE         0
#>  3 0         NA       2         0          0 TRUE         0
#>  4 0         NA       3         0          0 TRUE         0
#>  5 0         NA       4         0          0 TRUE         0
#>  6 0         NA       5         0          0 TRUE         0
#>  7 0         NA       6         0          0 TRUE         0
#>  8 0         NA       7         0          0 TRUE         0
#>  9 0         NA       8         0          0 TRUE         0
#> 10 0         NA       9         0          0 TRUE         0
#> # … with 189 more rows
…
#> total:
#>   - 500 'sampled' individuals
#>   - 0 'remembered' individuals
#>   - 895 'retained' individuals
#>   - 500 'alive' individuals
#> --------------------- 
#> oldest sampled individual: 0 time units 'before present' 
#> youngest sampled individual: 0 time units 'before present' 
#> 
#> oldest node: 8463 time units 'before present' 
#> youngest node: 0 time units 'before present' 
#> --------------------- 
#> overview of the underlying sf object:
#> 
#> # A tibble: 1,955 × 12
#>    pop   node_id  time time_…¹               location sampled remembered retai…²
#>    <chr>   <int> <dbl> <dbl[1>                <POINT> <lgl>   <lgl>      <lgl>  
#>  1 p1          0     0       0   (0.904485 0.0777489) TRUE    FALSE      TRUE   
#>  2 p1          1     0       0   (0.904485 0.0777489) TRUE    FALSE      TRUE   
#>  3 p1          2     0       0   (0.668828 0.5246381) TRUE    FALSE      TRUE   
#>  4 p1          3     0       0   (0.668828 0.5246381) TRUE    FALSE      TRUE   
#>  5 p1          4     0       0  (0.7707701 0.1518462) TRUE    FALSE      TRUE   
#>  6 p1          5     0       0  (0.7707701 0.1518462) TRUE    FALSE      TRUE   
#>  7 p1          6     0       0  (0.7617792 0.2616453) TRUE    FALSE      TRUE   
#>  8 p1          7     0       0  (0.7617792 0.2616453) TRUE    FALSE      TRUE   
#>  9 p1          8     0       0 (0.9807475 0.04223008) TRUE    FALSE      TRUE   
#> 10 p1          9     0       0 (0.9807475 0.04223008) TRUE    FALSE      TRUE   
#> # … with 1,945 more rows, 4 more variables: alive <lgl>, pedigree_id <dbl>,
#> #   ind_id <dbl>, pop_id <int>, and abbreviated variable names ¹​time_tskit,
#> #   ²​retained
…
