…
``` r

emh_samples <- schedule_sampling(model, times = runif(n = 40, min = 10000, max = 40000), list(eur, 1))
emh_samples
```

    #> # A tibble: 40 × 8
    #>     time pop       n name  y_orig x_orig y     x    
    #>    <int> <chr> <int> <lgl> <lgl>  <lgl>  <lgl> <lgl>
    #>  1 10320 EUR       1 NA    NA     NA     NA    NA   
    #>  2 11188 EUR       1 NA    NA     NA     NA    NA   
    #>  3 11396 EUR       1 NA    NA     NA     NA    NA   
    #>  4 11529 EUR       1 NA    NA     NA     NA    NA   
    #>  5 11927 EUR       1 NA    NA     NA     NA    NA   
    #>  6 12675 EUR       1 NA    NA     NA     NA    NA   
    #>  7 13689 EUR       1 NA    NA     NA     NA    NA   
    #>  8 13744 EUR       1 NA    NA     NA     NA    NA   
    #>  9 14775 EUR       1 NA    NA     NA     NA    NA   
    #> 10 16362 EUR       1 NA    NA     NA     NA    NA   
    #> # ℹ 30 more rows
…
Note that in the previous chunk we referred to individuals by their
names (not numeric IDs of nodes as you would do it with *tskit* in
Python). We allow this for readability and to make it easier to see
which individuals are which based on the specified sampling schedule
(the names are assigned to individuals based on the order of their
sampling). We can get an overview of the individuals scheduled for
sampling (i.e. permanently remembered) and their names with a helper
function [`ts_samples()`](https://bodkan.net/slendr/reference/ts_samples.md):

``` r

ts_samples(ts)
```

    #> # A tibble: 58 × 3
    #>    name   time pop  
    #>    <chr> <dbl> <chr>
    #>  1 NEA_1 70000 NEA  
    #>  2 NEA_2 40000 NEA  
    #>  3 EUR_1 39171 EUR  
    #>  4 EUR_2 39134 EUR  
    #>  5 EUR_3 37739 EUR  
    #>  6 EUR_4 36531 EUR  
    #>  7 EUR_5 36362 EUR  
    #>  8 EUR_6 35945 EUR  
    #>  9 EUR_7 33900 EUR  
    #> 10 EUR_8 33854 EUR  
    #> # ℹ 48 more rows
…
