…
# simulate a tree sequence
ts <- msprime(model, sequence_length = 1e6, recombination_rate = 1e-8, samples = schedule)

# inspect the recorded table of samples
ts_samples(ts)
#> # A tibble: 441 × 3
#>    name     time pop  
#>    <chr>   <dbl> <chr>
#>  1 Vindija 40000 NEA  
#>  2 AFR_1   20000 AFR  
#>  3 AFR_2   20000 AFR  
#>  4 AFR_3   20000 AFR  
#>  5 AFR_4   20000 AFR  
#>  6 AFR_5   20000 AFR  
#>  7 AFR_6   20000 AFR  
#>  8 AFR_7   20000 AFR  
#>  9 AFR_8   20000 AFR  
#> 10 AFR_9   20000 AFR  
#> # ℹ 431 more rows
```
