Extract (spatio-)temporal ancestral history for given nodes/individuals — ts_ancestors • slendr
…
check_dependencies(python = TRUE) # make sure dependencies are present

# load an example model with an already simulated tree sequence
slendr_ts <- system.file("extdata/models/introgression.trees", package = "slendr")
model <- read_model(path = system.file("extdata/models/introgression", package = "slendr"))

# load the tree-sequence object from disk
ts <- ts_load(slendr_ts, model, simplify = TRUE)

# find the complete ancestry information for a given individual
ts_ancestors(ts, "EUR_1", verbose = TRUE)
#> Collecting ancestors of EUR_1 [1/1]...
#> 
#> Generating data about spatial relationships of nodes...
#> # A tibble: 58 × 12
#>    name  pop   node_id level child_id parent_id child_…¹ paren…² child…³ paren…⁴
#>    <chr> <fct>   <int> <fct>    <int>     <int>    <dbl>   <dbl> <fct>   <fct>  
#>  1 EUR_1 EUR        16 1           16        38        0    1670 EUR     EUR    
#>  2 EUR_1 EUR        16 1           16        45        0   10100 EUR     EUR    
#>  3 EUR_1 EUR        16 1           16        47        0   11150 EUR     EUR    
#>  4 EUR_1 EUR        16 2           38        41     1670    4010 EUR     EUR    
#>  5 EUR_1 EUR        16 2           38        45     1670   10100 EUR     EUR    
#>  6 EUR_1 EUR        16 2           45        48    10100   13730 EUR     EUR    
#>  7 EUR_1 EUR        16 2           45        51    10100   21020 EUR     EUR    
#>  8 EUR_1 EUR        16 2           47        50    11150   19010 EUR     EUR    
#>  9 EUR_1 EUR        16 2           47        50    11150   19010 EUR     EUR    
#> 10 EUR_1 EUR        16 2           47        51    11150   21020 EUR     EUR    
#> # … with 48 more rows, 2 more variables: left_pos <dbl>, right_pos <dbl>, and
#> #   abbreviated variable names ¹​child_time, ²​parent_time, ³​child_pop,
#> #   ⁴​parent_pop
#> # ℹ Use `print(n = ...)` to see more rows, and `colnames()` to see all variable names
…
