…
# load an example model with an already simulated tree sequence
slendr_ts <- system.file("extdata/models/introgression_slim.trees", package = "slendr")
model <- read_model(path = system.file("extdata/models/introgression", package = "slendr"))

# load the tree-sequence object from disk
ts <- ts_read(slendr_ts, model)

# find IBD segments between specified Neanderthals and Europeans
ts_ibd(
  ts,
  coordinates = TRUE,
  between = list(c("NEA_1", "NEA_2"), c("EUR_1", "EUR_2")),
  minimum_length = 40000
)
#> # A tibble: 32 × 13
#>    node1 node2 length  mrca node1_time node2_time tmrca   left  right name1
#>    <int> <int>  <dbl> <dbl>      <dbl>      <dbl> <dbl>  <dbl>  <dbl> <chr>
#>  1     0    16  87198    82      70000          0 20001  65949 153147 NEA_1
#>  2     0    16  85735    82      70000          0 20001 221193 306928 NEA_1
#>  3     0    17  68822    82      70000          0 20001  65949 134771 NEA_1
#>  4     0    17  53084    82      70000          0 20001 227724 280808 NEA_1
#>  5     0    18  87198    82      70000          0 20001  65949 153147 NEA_1
#>  6     0    18  85735    82      70000          0 20001 221193 306928 NEA_1
#>  7     0    19  81722    82      70000          0 20001  71425 153147 NEA_1
#>  8     0    19  58054    79      70000          0  2340 227185 285239 NEA_1
#>  9     1    16  87198    82      70000          0 20001  65949 153147 NEA_1
#> 10     1    16  85735    82      70000          0 20001 221193 306928 NEA_1
#> # ℹ 22 more rows
#> # ℹ 3 more variables: name2 <chr>, pop1 <fct>, pop2 <fct>
```
