…
``` r
init_env()
#> The interface to all required Python modules has been activated.

# load an example model with an already simulated tree sequence
slendr_ts <- system.file("extdata/models/introgression_slim.trees", package = "slendr")
model <- read_model(path = system.file("extdata/models/introgression", package = "slendr"))

# load the tree-sequence object from disk
ts <- ts_read(slendr_ts, model)

# extract an annotated table with (spatio-)temporal node information
ts_nodes(ts)
#> # A tibble: 85 × 12
#>    name  pop   node_id  time time_tskit sampled remembered retained alive
#>    <chr> <fct>   <int> <dbl>      <dbl> <lgl>   <lgl>      <lgl>    <lgl>
#>  1 NEA_1 NEA         0 70000       2334 TRUE    TRUE       TRUE     FALSE
#>  2 NEA_1 NEA         1 70000       2334 TRUE    TRUE       TRUE     FALSE
#>  3 NEA_2 NEA         2 40000       1334 TRUE    TRUE       TRUE     FALSE
#>  4 NEA_2 NEA         3 40000       1334 TRUE    TRUE       TRUE     FALSE
#>  5 AFR_1 AFR         4     0          0 TRUE    TRUE       TRUE     TRUE 
#>  6 AFR_1 AFR         5     0          0 TRUE    TRUE       TRUE     TRUE 
#>  7 AFR_2 AFR         6     0          0 TRUE    TRUE       TRUE     TRUE 
#>  8 AFR_2 AFR         7     0          0 TRUE    TRUE       TRUE     TRUE 
#>  9 AFR_3 AFR         8     0          0 TRUE    TRUE       TRUE     TRUE 
#> 10 AFR_3 AFR         9     0          0 TRUE    TRUE       TRUE     TRUE 
#> # ℹ 75 more rows
#> # ℹ 3 more variables: pedigree_id <dbl>, pop_id <int>, ind_id <dbl>
```
