Extract ancestry tracts from a tree sequence (EXPERIMENTAL) — ts_tracts • slendr
…
# extract Neanderthal ancestry tracts (i.e. those corresponding to the
# census event at the gene-flow time at 55000 kya as scheduled by
# the simulation which produced the tree sequence)
nea_tracts <- ts_tracts(ts, census = 55000, source = "NEA")
#> 
#> PopAncestry summary
#> Number of ancestral populations: 	4
#> Number of sample chromosomes: 		26
#> Number of ancestors: 			763
#> Total length of genomes: 		130000000.000000
#> Ancestral coverage: 			120000000.000000
#> 
nea_tracts
#> # A tibble: 42 × 8
#>    name  node_id pop   source_pop    left   right length source_pop_id
#>    <chr>   <dbl> <fct> <fct>        <dbl>   <dbl>  <dbl>         <dbl>
#>  1 EUR_1      16 EUR   NEA          44049  101210  57161             2
#>  2 EUR_1      16 EUR   NEA         244041  280650  36609             2
#>  3 EUR_1      16 EUR   NEA        4636048 4736790 100742             2
#>  4 EUR_1      16 EUR   NEA        4756344 4850072  93728             2
#>  5 EUR_1      17 EUR   NEA         106906  268610 161704             2
#>  6 EUR_1      17 EUR   NEA        1420672 1432252  11580             2
#>  7 EUR_1      17 EUR   NEA        3438894 3511366  72472             2
#>  8 EUR_1      17 EUR   NEA        3624298 3682434  58136             2
#>  9 EUR_1      17 EUR   NEA        4139989 4239794  99805             2
#> 10 EUR_1      17 EUR   NEA        4318138 4351616  33478             2
#> # ℹ 32 more rows
…
